id,name,model_id:id,group_id:id,perm_read,perm_write,perm_create,perm_unlink
access_advance_payment_line_group_account_invoice,advance.payment.line,model_advance_payment_line,account.group_account_invoice,1,0,0,0
access_advance_payment_line_group_account_user,advance.payment.line,model_advance_payment_line,account.group_account_user,1,1,1,1
access_advance_payment_line_group_account_manager,advance.payment.line,model_advance_payment_line,account.group_account_manager,1,1,1,1
access_c_metodopago_group_admin,c.metodopago,model_c_metodopago,vde_cfdi_33.group_vde_cfdi33_admin,1,1,1,1
access_c_claveimpuestos_group_admin,c.claveimpuesto,model_c_claveimpuestos,vde_cfdi_33.group_vde_cfdi33_admin,1,1,1,1
access_c_claveprodserv_group_admin,c.claveprodserv,model_c_claveprodserv,vde_cfdi_33.group_vde_cfdi33_admin,1,1,1,1
access_c_claveunidad_group_admin,c.claveunidad,model_c_claveunidad,vde_cfdi_33.group_vde_cfdi33_admin,1,1,1,1
access_c_formapago_group_admin,c.formapago,model_c_formapago,vde_cfdi_33.group_vde_cfdi33_admin,1,1,1,1
access_c_regimenfiscal_group_admin,c.regimenfiscal,model_c_regimenfiscal,vde_cfdi_33.group_vde_cfdi33_admin,1,1,1,1
access_c_tiporelacion_group_admin,c.tiporelacion,model_c_tiporelacion,vde_cfdi_33.group_vde_cfdi33_admin,1,1,1,1
access_c_usocfdi_group_admin,c.usocfdi,model_c_usocfdi,vde_cfdi_33.group_vde_cfdi33_admin,1,1,1,1
access_account_invoice_line_invoice_admin,account.invoice.line.invoice,model_account_invoice_line_invoice,vde_cfdi_33.group_vde_cfdi33_admin,1,1,1,1
access_account_invoice_update,account.invoice.update,model_account_invoice_update,vde_cfdi_33.group_vde_cfdi33_admin,1,1,1,1
access_account_payment_line_invoice,account.payment.line.invoice,model_account_payment_line_invoice,vde_cfdi_33.group_vde_cfdi33_admin,1,1,1,1
access_account_payment_update,account.payment.update,model_account_payment_update,vde_cfdi_33.group_vde_cfdi33_admin,1,1,1,1
